Division,WeightClassKg,Place,Name,Team,BodyweightKg,Best3SquatKg,Best3BenchKg,Best3DeadliftKg,TotalKg,Equipment,Event,Sex,BirthDate
Boys,59.87,1,Trey Gonzales,Corpus Christi Calallen,59.87,129.27,79.38,154.22,362.87,Unlimited,SBD,M,
Boys,59.87,2,Brandon Acosta,Corpus Christi Calallen,59.87,138.35,83.91,131.54,353.8,Unlimited,SBD,M,
Boys,59.87,3,Jeremiah French,Orange Grove,57.15,106.59,61.23,102.06,269.89,Unlimited,SBD,M,
Boys,59.87,DQ,David Salinas,Corpus Christi Calallen,59.69,149.69,106.59,,,Unlimited,SBD,M,
Boys,59.87,DQ,Benjamin Casterline,Corpus Christi Calallen,59.24,92.99,,,,Unlimited,SBD,M,
Boys,67.13,1,Pedro Garcia,Corpus Christi Calallen,63.5,174.63,115.67,199.58,489.88,Unlimited,SBD,M,
Boys,67.13,2,Caleb Cole,Orange Grove,66.68,151.95,97.52,154.22,403.7,Unlimited,SBD,M,
Boys,67.13,3,Matthew Martinez,Corpus Christi Tuloso-Midway,65.41,136.08,83.91,145.15,365.14,Unlimited,SBD,M,
Boys,67.13,4,Steven Raguini,Corpus Christi Tuloso-Midway,67.04,115.67,83.91,156.49,356.07,Unlimited,SBD,M,
Boys,67.13,5,Jesse Baltierra III,Corpus Christi Tuloso-Midway,65.14,120.2,83.91,142.88,347,Unlimited,SBD,M,
Boys,67.13,6,Izeah Garcia,Orange Grove,66.13,127.01,77.11,120.2,324.32,Unlimited,SBD,M,
Boys,74.84,1,Ricardo Rodriguez,Corpus Christi Calallen,73.03,222.26,131.54,238.14,591.94,Unlimited,SBD,M,
Boys,74.84,2,Jaden Cantu,Corpus Christi Calallen,74.75,210.92,158.76,190.51,560.19,Unlimited,SBD,M,
Boys,74.84,3,Javier Vela,Corpus Christi Tuloso-Midway,69.04,195.04,115.67,142.88,453.59,Unlimited,SBD,M,
Boys,74.84,4,Jayden McCall,Corpus Christi Tuloso-Midway,72.03,158.76,83.91,183.7,426.38,Unlimited,SBD,M,
Boys,74.84,5,Maddox Hodges,Orange Grove,72.39,145.15,102.06,147.42,394.63,Unlimited,SBD,M,
Boys,74.84,6,Kristopher Bieniek,Corpus Christi Tuloso-Midway,73.57,136.08,90.72,151.95,378.75,Unlimited,SBD,M,
Boys,74.84,7,Jaxson Winstead,Orange Grove,73.21,145.15,86.18,142.88,374.21,Unlimited,SBD,M,
Boys,74.84,8,Aydin Clark,Corpus Christi Calallen,71.21,131.54,72.57,158.76,362.87,Unlimited,SBD,M,
Boys,74.84,9,Jose Tovar,Corpus Christi Calallen,73.03,120.2,97.52,124.74,342.46,Unlimited,SBD,M,
Boys,74.84,10,Andres Jiminian,Orange Grove,69.94,108.86,88.45,127.01,324.32,Unlimited,SBD,M,
Boys,74.84,DQ,Hunter Reeves,Corpus Christi Tuloso-Midway,73.12,,,,,Unlimited,SBD,M,
Boys,82.1,1,Diego Fuentes,Corpus Christi Calallen,78.65,185.97,154.22,192.78,532.97,Unlimited,SBD,M,
Boys,82.1,2,Cohen McQuarrie,Orange Grove,80.01,174.63,102.06,176.9,453.59,Unlimited,SBD,M,
Boys,82.1,3,Caiden Payne,Corpus Christi Calallen,78.29,172.37,90.72,167.83,430.91,Unlimited,SBD,M,
Boys,82.1,4,Trevor Roach,Corpus Christi Calallen,80.29,154.22,102.06,163.29,419.57,Unlimited,SBD,M,
Boys,82.1,5,Waylon Johnson,Corpus Christi Calallen,79.11,142.88,111.13,151.95,405.97,Unlimited,SBD,M,
Boys,82.1,6,Jayden Vasquez,Orange Grove,79.65,145.15,90.72,158.76,394.63,Unlimited,SBD,M,
Boys,82.1,7,Michael Martinez,Corpus Christi Tuloso-Midway,81.65,111.13,61.23,129.27,301.64,Unlimited,SBD,M,
Boys,89.81,1,Tristian Luna,Corpus Christi Calallen,87.09,226.8,124.74,233.6,585.13,Unlimited,SBD,M,
Boys,89.81,2,Aden Ochoa,Orange Grove,88.45,183.7,108.86,195.04,487.61,Unlimited,SBD,M,
Boys,99.79,1,Emmanuel Martinez,Corpus Christi Calallen,96.52,204.12,124.74,190.51,519.36,Unlimited,SBD,M,
Boys,99.79,2,Lucas Brown,Corpus Christi Calallen,96.34,172.37,111.13,192.78,476.27,Unlimited,SBD,M,
Boys,99.79,3,Ryan Gonzalez,Orange Grove,97.16,136.08,90.72,142.88,369.68,Unlimited,SBD,M,
Boys,99.79,4,John Herrera,Corpus Christi Tuloso-Midway,93.26,102.06,68.04,124.74,294.84,Unlimited,SBD,M,
Boys,109.77,1,Fabian Saenz,Corpus Christi Calallen,107.5,267.62,158.76,238.14,664.51,Unlimited,SBD,M,
Boys,109.77,2,Richard Rubio,Corpus Christi Calallen,104.05,247.21,183.7,199.58,630.49,Unlimited,SBD,M,
Boys,109.77,3,Joshua Clement,Corpus Christi Tuloso-Midway,108.59,161.03,90.72,151.95,403.7,Unlimited,SBD,M,
Boys,109.77,4,Kylan Flores,Orange Grove,106.59,136.08,83.91,142.88,362.87,Unlimited,SBD,M,
Boys,139.71,1,Brady Buchanan,Corpus Christi Calallen,135.81,215.46,165.56,208.65,589.67,Unlimited,SBD,M,
Boys,139.71,2,Antonio Ramos,Corpus Christi Tuloso-Midway,127.46,115.67,92.99,183.7,392.36,Unlimited,SBD,M,
Boys,139.71,3,Isreal Pina,Corpus Christi Tuloso-Midway,136.35,131.54,72.57,142.88,347,Unlimited,SBD,M,
Boys,139.71+,1,Carson Sifuentes,Corpus Christi Calallen,153.77,229.06,158.76,192.78,580.6,Unlimited,SBD,M,
