Division,WeightClassKg,Place,Name,Team,BodyweightKg,Best3SquatKg,Best3BenchKg,Best3DeadliftKg,TotalKg,Equipment,Event,Sex,BirthDate
Boys,51.71,1,Cesar Ramos,Meridian,50.53,99.79,45.36,117.93,263.08,Unlimited,SBD,M,
Boys,51.71,2,Zackary Smith,Meridian,51.26,102.06,52.16,102.06,256.28,Unlimited,SBD,M,
Boys,55.79,1,Joel Torres,Whitney,55.79,138.35,79.38,158.76,376.48,Unlimited,SBD,M,
Boys,55.79,2,Delvion Walters,Whitney,55.52,142.88,72.57,158.76,374.21,Unlimited,SBD,M,
Boys,55.79,3,Erik Herrera,Whitney,55.16,129.27,74.84,127.01,331.12,Unlimited,SBD,M,
Boys,59.87,1,Edgar Sanchez,Whitney,58.88,158.76,86.18,174.63,419.57,Unlimited,SBD,M,
Boys,59.87,2,Kyren Howard,Whitney,58.97,156.49,95.25,156.49,408.23,Unlimited,SBD,M,
Boys,59.87,3,Teague Arlitt,Axtell,59.69,147.42,83.91,149.69,381.02,Unlimited,SBD,M,
Boys,59.87,4,Michael-Paul Loftice,Mart,59.33,136.08,81.65,122.47,340.19,Unlimited,SBD,M,
Boys,67.13,1,Michael Harrison,Axtell,66.95,167.83,104.33,179.17,451.32,Unlimited,SBD,M,
Boys,67.13,2,Ian Gomez,Meridian,66.32,165.56,88.45,176.9,430.91,Unlimited,SBD,M,
Boys,74.84,1,Troy Arlitt,Axtell,72.21,222.26,106.59,226.8,555.65,Unlimited,SBD,M,
Boys,74.84,2,Tanner McAninch,Axtell,73.94,192.78,131.54,197.31,521.63,Unlimited,SBD,M,
Boys,74.84,3,Hugo Costilla,Rosebud-Lott,73.75,199.58,111.13,179.17,489.88,Unlimited,SBD,M,
Boys,74.84,4,Logan Tays,Rosebud-Lott,74.75,185.97,117.93,176.9,480.81,Unlimited,SBD,M,
Boys,74.84,DQ,Aidan Albright,Whitney,72.76,199.58,129.27,,,Unlimited,SBD,M,
Boys,74.84,DQ,Austin Pogue,Meridian,74.3,188.24,,,,Unlimited,SBD,M,
Boys,82.1,1,Pablo Mendoza,Whitney,82.01,147.42,83.91,156.49,387.82,Unlimited,SBD,M,
Boys,82.1,DQ,Armando Chavez,Mart,78.2,,,,,Unlimited,SBD,M,
Boys,89.81,1,John Wyatt,Meridian,89.81,215.46,104.33,219.99,539.77,Unlimited,SBD,M,
Boys,89.81,2,Luke Price,Rosebud-Lott,88.9,195.04,142.88,167.83,505.76,Unlimited,SBD,M,
Boys,89.81,DQ,John Nesselroad,Whitney,88.99,,,,,Unlimited,SBD,M,
Boys,99.79,1,Jose Ramerize,Whitney,96.62,161.03,145.15,197.31,503.49,Unlimited,SBD,M,
Boys,99.79,2,Brandon Klanika,Axtell,91.08,181.44,124.74,190.51,496.68,Unlimited,SBD,M,
Boys,99.79,3,Noah Sanchez,Axtell,90.72,195.04,108.86,188.24,492.15,Unlimited,SBD,M,
Boys,99.79,4,Brenner Breton,Axtell,98.88,170.1,129.27,183.7,483.08,Unlimited,SBD,M,
Boys,99.79,5,Liam Nolan,Whitney,91.9,142.88,97.52,158.76,399.16,Unlimited,SBD,M,
Boys,109.77,1,Abram Ross,Mart,108.14,297.1,174.63,256.28,728.02,Unlimited,SBD,M,
Boys,109.77,DQ,Erik Castillo,Rosebud-Lott,100.43,219.99,117.93,,,Unlimited,SBD,M,
Boys,124.74,1,Isaiah Arjon,Mart,114.21,244.94,142.88,217.72,605.55,Unlimited,SBD,M,
Boys,139.71,1,Jackson Sedberry,Mart,126.55,249.48,142.88,208.65,601.01,Unlimited,SBD,M,
Boys,139.71,DQ,Swaner Monte,Mart,124.83,,,,,Unlimited,SBD,M,
